...........................
----------------------------------------------------------------------
Ran 27 tests in 2.042s

OK
Name             Stmts   Miss Branch BrPart  Cover   Missing
------------------------------------------------------------
Collatz.py          26      0     10      0   100%
TestCollatz.py     104      2      0      0    98%   83-84
------------------------------------------------------------
TOTAL              130      2     10      0    99%
