1 10 20
100 200 125
201 210 89
900 1000 174
5 10 20
9 10 20
3 4 8
8 9 20
62 84 116
32 51 110
11 44 112
74 81 36
69 69 15
64 65 28
8 44 112
75 77 23
93 96 106
82 82 111
68 91 116
11 72 113
5 86 116
34 90 116
47 68 113
90 96 106
53 80 116
44 62 113
20 68 113
36 77 116
74 86 111
81 95 111
57 95 116
39 85 116
659 945 179
451 823 171
153 688 145
967 984 143
606 811 171
847 891 179
125 293 128
818 864 148
833 924 179
516 934 179
337 631 142
395 807 171
714 918 179
204 293 128
245 654 145
32 52 110
226 584 144
432 790 171
745 858 153
197 630 144
921 940 174
671 896 179
891 964 174
615 980 179
630 4048 238
8459 8731 203
5037 7324 262
8827 9817 260
5905 8386 262
6550 8500 257
1512 3469 217
7066 8855 252
6640 8931 257
5264 7586 262
3491 3526 150
1668 3687 217
4157 9337 262
9850 9939 242
8040 9854 260
8626 9227 247
8963 9770 260
263 6333 262
6536 8538 257
7014 7256 195
749 3886 238
9490 9921 242
4977 7817 262
1247 2723 209
10407 61587 340
56214 58850 304
61804 92808 351
13285 79757 351
19917 24215 282
50226 97193 351
29114 71311 340
15464 47889 324
80519 84271 320
48629 83697 351
28029 60129 340
63699 96901 351
55412 65121 335
24125 35943 324
98016 98056 191
65781 87292 351
71162 80484 351
58644 72315 335
3673 62514 340
84999 98296 333
68374 73993 325
93834 96726 328
12088 37340 324
92968 99956 328
150906 155433 352
428111 737092 509
191174 297514 443
327865 977556 525
100285 755886 509
939448 971343 507
205246 683279 509
325320 971288 525
650989 973146 525
46420 607901 470
35176 220216 386
195926 339956 443
663672 935506 525
454669 963637 525
209321 770487 509
584780 657099 509
393240 912013 525
563910 599031 434
357836 788112 509
182056 622333 470
566117 900892 525
386553 747834 509
738863 874774 525
828888 975829 525
5287 79825 351
4422 88046 351
63900 68767 312
23341 51669 324
18980 97480 351
99556 99881 328
56565 78251 351
48699 56794 340
88529 89715 315
90657 99555 333
48457 57114 340
44691 45279 314
13342 87767 351
36871 57973 340
61004 64702 330
